^C:\USERS\SOBOL\SOURCE\REPOS\TROY\TROY\X64\DEBUG\ASM.OBJ|C:\USERS\SOBOL\SOURCE\REPOS\TROY\TROY\X64\DEBUG\MAIN.OBJ
/OUT:"C:\USERS\SOBOL\SOURCE\REPOS\TROY\X64\DEBUG\TROY.EXE" /INCREMENTAL /NOLOGO KERNEL32.LIB USER32.LIB GDI32.LIB WINSPOOL.LIB COMDLG32.LIB ADVAPI32.LIB SHELL32.LIB OLE32.LIB OLEAUT32.LIB UUID.LIB ODBC32.LIB ODBCCP32.LIB /MANIFEST /MANIFESTUAC:"level='asInvoker' uiAccess='false'" /manifest:embed /DEBUG:FASTLINK /PDB:"C:\USERS\SOBOL\SOURCE\REPOS\TROY\X64\DEBUG\TROY.PDB" /SUBSYSTEM:CONSOLE /TLBID:1 /DYNAMICBASE /NXCOMPAT /IMPLIB:"C:\USERS\SOBOL\SOURCE\REPOS\TROY\X64\DEBUG\TROY.LIB" /MACHINE:X64 X64\DEBUG\MAIN.OBJ
X64\DEBUG\ASM.OBJ
