^C:\USERS\SOBOL\SOURCE\REPOS\TUTORIAL_1\TUTORIAL_1\MAIN.CPP
C:\USERS\SOBOL\SOURCE\REPOS\TUTORIAL_1\TUTORIAL_1\X64\DEBUG\VC142.PDB
C:\USERS\SOBOL\SOURCE\REPOS\TUTORIAL_1\TUTORIAL_1\X64\DEBUG\VC142.IDB
C:\USERS\SOBOL\SOURCE\REPOS\TUTORIAL_1\TUTORIAL_1\X64\DEBUG\MAIN.OBJ
